# í <-- This is here to make sure that the encoding stays ANSI, do not remove it

eordand_green_rebels = {

	color = { 0 128 64 }

	area = nation					# Stays within the nation
	government = any
	religion = great_dookan
	defection = none
	independence = goblin
	gfx_type = culture_province
	
	resilient = yes
	reinforcing = yes
	general = yes
	smart = yes
	unit_transfer = no
	will_relocate = yes
	
	infantry = 0.9
	cavalry = 0.1
	
	morale = 1.5
	
	# Possible handle actions
	handle_action_negotiate = no
	handle_action_stability = no
	handle_action_build_core = no
	handle_action_send_missionary = no
	
	# The rebel type with the highest modifier for this province gets picked
	spawn_chance = {
		factor = 0
		
	}
 
 	# This is checked for EACH province in the Area of Operations
	movement_evaluation = {
		factor = 1
		modifier = {
			factor = 0.1
			units_in_province = 1
		}
		modifier = {
			factor = 0.001
			controlled_by = eordand_green_rebels
		}
		modifier = {
			factor = 10
			is_capital = yes
		}
		modifier = {
			factor = 1.5
			unrest = 2
		}
		modifier = {
			factor = 1.5
			unrest = 4
		}
		modifier = {
			factor = 1.5
			unrest = 6
		}
	}
 
 	# Province Scope
 	siege_won_trigger = {
		always = yes
 	}
	siege_won_effect = {
		add_local_autonomy = 25
		add_devastation = 25
		add_permanent_province_modifier = {
			name = devasted_province
			duration = 1825
		}
		if = {
				limit = { NOT = { is_core = H99 } }
				add_core = H99
		}
	}
	
	# Country scope
	can_negotiate_trigger = {
		always = no
	}
	
	# Country scope
	can_enforce_trigger = {
		always = yes
	}
	
	# Localisation for their demands
	demands_description = "eordand_green_rebels_demand"
	
	# Country Scope	
	demands_enforced_effect = {
		hidden_effect = {
			add_country_modifier = {
				name = just_lost_to_rebels
				duration = 10
				hidden = yes
			}
			set_country_flag = eord_disaster_lost
		}
		add_prestige = -10	
		every_owned_province = {
			limit = {
				has_rebel_faction = eordand_green_rebels
			}
			if = {
				limit = { NOT = { is_core = H99 } }
				add_core = H99
			}			
			cede_province = H99
		}			
	}
}