defined_text = {
    name = getNscStability0
	random = no
	
	text = {
        localisation_key = nscStability0
        trigger = {
            stability = 0
        }
    }
	
	text = {
        localisation_key = nscNotStability0
        trigger = {
            NOT = { stability = 0 }
        }
    }
}

defined_text = {
    name = getNscStability1
	random = no
	
	text = {
        localisation_key = nscStability1
        trigger = {
            stability = 1
        }
    }
	
	text = {
        localisation_key = nscNotStability1
        trigger = {
            NOT = { stability = 1 }
        }
    }
}

defined_text = {
    name = getNscWarExhaustion
	random = no
	
	text = {
        localisation_key = nscNotWarExhaustion1
        trigger = {
           NOT = { war_exhaustion = 1 }
        }
    }
	
	text = {
        localisation_key = nscWarExhaustion1
        trigger = {
			war_exhaustion = 1
        }
    }
}

defined_text = {
    name = getNscDeficit
	random = no
	
	text = {
        localisation_key = nscNoDeficit
        trigger = {
			is_in_deficit = no
			land_maintenance = 1
			naval_maintenance = 1
        }
    }
	
	text = {
        localisation_key = nscDeficit
        trigger = {
            OR = {
				is_in_deficit = yes
				NOT = { land_maintenance = 1 }
				NOT = { naval_maintenance = 1 }
			}
        }
    }
}

defined_text = {
    name = getNscEmployedAdmAdvisor
	random = no
	
	text = {
        localisation_key = nscEmployedAdmAdvisor
        trigger = {
			employed_advisor = { category = ADM }
			is_in_deficit = no
			land_maintenance = 1
			naval_maintenance = 1
        }
    }
	
	text = {
        localisation_key = nscNotEmployedAdmAdvisor
        trigger = {
            OR = {
				NOT = { employed_advisor = { category = ADM } }
				is_in_deficit = yes
				NOT = { land_maintenance = 1 }
				NOT = { naval_maintenance = 1 }
			}
        }
    }
}

defined_text = {
    name = getNscEmployedDipAdvisor
	random = no
	
	text = {
        localisation_key = nscEmployedDipAdvisor
        trigger = {
			employed_advisor = { category = DIP }
			is_in_deficit = no
			land_maintenance = 1
			naval_maintenance = 1
        }
    }
	
	text = {
        localisation_key = nscNotEmployedDipAdvisor
        trigger = {
            OR = {
				NOT = { employed_advisor = { category = DIP } }
				is_in_deficit = yes
				NOT = { land_maintenance = 1 }
				NOT = { naval_maintenance = 1 }
			}
        }
    }
}

defined_text = {
    name = getNscEmployedMilAdvisor
	random = no
	
	text = {
        localisation_key = nscEmployedMilAdvisor
        trigger = {
			employed_advisor = { category = MIL }
			is_in_deficit = no
			land_maintenance = 1
			naval_maintenance = 1
        }
    }
	
	text = {
        localisation_key = nscNotEmployedMilAdvisor
        trigger = {
            OR = {
				NOT = { employed_advisor = { category = MIL } }
				is_in_deficit = yes
				NOT = { land_maintenance = 1 }
				NOT = { naval_maintenance = 1 }
			}
        }
    }
}

defined_text = {
    name = getNscClergyNotDisloyal
	random = no
	
	text = {
        localisation_key = nscNotClergyDisloyal
        trigger = {
			estate_loyalty = { estate = estate_church loyalty = 30 }
        }
    }
	
	text = {
        localisation_key = nscClergyDisloyal
        trigger = {
            NOT = { estate_loyalty = { estate = estate_church loyalty = 30 } }
        }
    }
}

defined_text = {
    name = getNscNobilityNotDisloyal
	random = no
	
	text = {
        localisation_key = nscNotNobilityDisloyal
        trigger = {
			estate_loyalty = { estate = estate_nobles loyalty = 30 }
        }
    }
	
	text = {
        localisation_key = nscNobilityDisloyal
        trigger = {
            NOT = { estate_loyalty = { estate = estate_nobles loyalty = 30 } }
        }
    }
}

defined_text = {
    name = getNscMerchantsNotDisloyal
	random = no
	
	text = {
        localisation_key = nscNotMerchantsDisloyal
        trigger = {
			estate_loyalty = { estate = estate_burghers loyalty = 30 }
        }
    }
	
	text = {
        localisation_key = nscMerchantsDisloyal
        trigger = {
            NOT = { estate_loyalty = { estate = estate_burghers loyalty = 30 } }
        }
    }
}

defined_text = {
    name = getNscMagesNotDisloyal
	random = no
	
	text = {
        localisation_key = nscNotMagesDisloyal
        trigger = {
			estate_loyalty = { estate = estate_mages loyalty = 30 }
        }
    }
	
	text = {
        localisation_key = nscMagesDisloyal
        trigger = {
            NOT = { estate_loyalty = { estate = estate_mages loyalty = 30 } }
        }
    }
}

defined_text = {
    name = getNscAdventurersNotDisloyal
	random = no
	
	text = {
        localisation_key = nscNotAdventurersDisloyal
        trigger = {
			estate_loyalty = { estate = estate_adventurers loyalty = 30 }
        }
    }
	
	text = {
        localisation_key = nscAdventurersDisloyal
        trigger = {
            NOT = { estate_loyalty = { estate = estate_adventurers loyalty = 30 } }
        }
    }
}

defined_text = {
    name = getSubjectsLoyal
	random = no
	
	text = {
        localisation_key = nscSubjectsLoyal
        trigger = {
			all_subject_country = { NOT = { liberty_desire = 50 } }
        }
    }
	
	text = {
        localisation_key = nscNotSubjectsLoyal
        trigger = {
            any_subject_country = { liberty_desire = 50 }
        }
    }
}

defined_text = {
	name = nscTensionsBar
	random = no
	
	text = {
		localisation_key = nscTensionsBarFull
		trigger = {
			REB = { check_variable = { which = nscTensionsVar value = 100 } }
		}
	}
	text = {
		localisation_key = nscTensionsBar9
		trigger = {
			REB = { check_variable = { which = nscTensionsVar value = 90 } }
		}
	}
	text = {
		localisation_key = nscTensionsBar8
		trigger = {
			REB = { check_variable = { which = nscTensionsVar value = 80 } }
		}
	}
	text = {
		localisation_key = nscTensionsBar7
		trigger = {
			REB = { check_variable = { which = nscTensionsVar value = 70 } }
		}
	}
	text = {
		localisation_key = nscTensionsBar6
		trigger = {
			REB = { check_variable = { which = nscTensionsVar value = 60 } }
		}
	}
	text = {
		localisation_key = nscTensionsBar5
		trigger = {
			REB = { check_variable = { which = nscTensionsVar value = 50 } }
		}
	}
	text = {
		localisation_key = nscTensionsBar4
		trigger = {
			REB = { check_variable = { which = nscTensionsVar value = 40 } }
		}
	}
	text = {
		localisation_key = nscTensionsBar3
		trigger = {
			REB = { check_variable = { which = nscTensionsVar value = 30 } }
		}
	}
	text = {
		localisation_key = nscTensionsBar2
		trigger = {
			REB = { check_variable = { which = nscTensionsVar value = 20 } }
		}
	}
	text = {
		localisation_key = nscTensionsBar1
		trigger = {
			REB = { check_variable = { which = nscTensionsVar value = 10 } }
		}
	}
	text = {
		localisation_key = nscTensionsBar0
		trigger = {
			REB = { check_variable = { which = nscTensionsVar value = 0 } }
		}
	}
}

defined_text = {
	name = nscInvestigationTargetEffect
	random = no
	
	text = {
		localisation_key = investigatingSunElf
		trigger = {
			is_chosen_country = yes
			NOT = { has_country_flag = nsc_was_investigated_by_@PREV }
		}
	}
	text = {
		localisation_key = investigatingNonSunElf
		trigger = {
			is_chosen_country = no
			NOT = { has_country_flag = nsc_was_investigated_by_@PREV }
		}
	}
	text = {
		localisation_key = notFirstInvestigation
		trigger = {
			has_country_flag = nsc_was_investigated_by_@PREV
		}
	}
}

defined_text = {
    name = getRulerOrHeirAtSamartal
	random = no
	
	text = {
        localisation_key = rulerAtSamartal
        trigger = {
            has_country_flag = nsc_sent_ruler
        }
    }
	
	text = {
        localisation_key = heirAtSamartal
        trigger = {
            has_country_flag = nsc_sent_heir
        }
    }
}

defined_text = {
    name = getIrrliamLead
	random = no
	
	text = {
        localisation_key = IrrliamExist
        trigger = {
            exists = F37
        }
    }
	
	text = {
        localisation_key = IrrliamDed
        trigger = {
			NOT = { exists = F37 }
        }
    }
}

defined_text = {
    name = getNscLocalInvestigationBoost
	random = no
	
	text = {
        localisation_key = nscLocalInvestigationBoostVeryHigh
        trigger = {
			check_variable = { which = nscInvestigationProgressVar which = nscInvestigaionBoostUpperThreshold }
        }
    }
	
	text = {
        localisation_key = nscLocalInvestigationBoostHigh
        trigger = {
			NOT = { check_variable = { which = nscInvestigationProgressVar which = nscInvestigaionBoostUpperThreshold } }
			check_variable = { which = nscInvestigationProgressVar which = nscInvestigaionBoostMiddleThreshold }
        }
    }
	
	text = {
        localisation_key = nscLocalInvestigationBoostLow
        trigger = {
			NOT = { check_variable = { which = nscInvestigationProgressVar which = nscInvestigaionBoostMiddleThreshold } }
			check_variable = { which = nscInvestigationProgressVar which = nscInvestigaionBoostLowerThreshold }
        }
    }
	
	text = {
        localisation_key = nscLocalInvestigationBoostVeryLow
        trigger = {
			NOT = { check_variable = { which = nscInvestigationProgressVar which = nscInvestigaionBoostLowerThreshold } }
        }
    }
}

defined_text = {
    name = getNscDisasterScoreTriggerIcon
	random = no
	
	text = {
        localisation_key = nscTriggerYes
        trigger = {
			check_variable = { which = nscDisasterScoreVar value = 100 }
        }
    }
	
	text = {
        localisation_key = nscTriggerNo
        trigger = {
            NOT = { check_variable = { which = nscDisasterScoreVar value = 100 } }
        }
    }
}

defined_text = {
    name = getDukeldarPretendersTriggerIcon
	random = no
	
	text = {
        localisation_key = nscTriggerYes
        trigger = {
			OR = { 
				has_country_flag = nsc_dukeldar_pretender_spawned
				has_country_flag = nsc_dinam_elutur_pretender_spawned
			}
        }
    }
	
	text = {
        localisation_key = nscTriggerNo
        trigger = {
			NOT = { has_country_flag = nsc_dukeldar_pretender_spawned }
			NOT = { has_country_flag = nsc_dinam_elutur_pretender_spawned }
        }
    }
}

defined_text = {
    name = getDukeldarHereticsTriggerIcon
	random = no
	
	text = {
        localisation_key = nscTriggerYes
        trigger = {
            all_owned_province = {
				NOT = { religion = old_bulwari_sun_cult }
				NOT = { religion = the_jadd }
			}
        }
    }
	
	text = {
        localisation_key = nscTriggerNo
        trigger = {
			any_owned_province = {
				OR = {
					religion = old_bulwari_sun_cult
					religion = the_jadd
				}
			}
        }
    }
}

defined_text = {
    name = getChosenCountryTriggerIcon
	random = no
	
	text = {
        localisation_key = nscTriggerYes
        trigger = {
            is_chosen_country = yes
        }
    }
	
	text = {
        localisation_key = nscTriggerNo
        trigger = {
			is_chosen_country = no
        }
    }
}

defined_text = {
    name = getRebelsArmyTriggerIcon
	random = no
	
	text = {
        localisation_key = nscTriggerYes
        trigger = {
            NOT = { num_of_rebel_controlled_provinces = 1 }
			NOT = { num_of_rebel_armies = 1 }
        }
    }
	
	text = {
        localisation_key = nscTriggerNo
        trigger = {
			OR = {
				num_of_rebel_controlled_provinces = 1
				num_of_rebel_armies = 1
			}
        }
    }
}

defined_text = {
    name = getNotChosenCountryTriggerIcon
	random = no
	
	text = {
        localisation_key = nscTriggerYes
        trigger = {
            is_chosen_country = no
        }
    }
	
	text = {
        localisation_key = nscTriggerNo
        trigger = {
			is_chosen_country = yes
        }
    }
}

defined_text = {
    name = getNotReligionNSCTriggerIcon
	random = no
	
	text = {
        localisation_key = nscTriggerYes
        trigger = {
			NOT = { religion = bulwari_sun_cult }
        }
    }
	
	text = {
        localisation_key = nscTriggerNo
        trigger = {
			religion = bulwari_sun_cult
        }
    }
}

defined_text = {
    name = getNscMonthlyDisasterScore
	random = no
	
	text = {
        localisation_key = postitiveNscMonthlyDisasterScore
        trigger = {
			check_variable = { which = monthlyNscDisasterScoreVar value = 0.01 }
        }
    }
	
	text = {
        localisation_key = nullNscMonthlyDisasterScore
        trigger = {
			is_variable_equal = { which = monthlyNscDisasterScoreVar value = 0 }
        }
    }
	
	text = {
        localisation_key = negativeNscMonthlyDisasterScore
        trigger = {
            NOT = { check_variable = { which = monthlyNscDisasterScoreVar value = 0 } }
        }
    }
}

defined_text = {
    name = getNscDisasterAdmAdvisorScore
	random = no
	
	text = {
        localisation_key = hasNscDisasterAdmAdvisorScore
        trigger = {
			employed_advisor = { category = ADM }
        }
    }
	
	text = {
        localisation_key = notNscDisasterAdmAdvisorScore
        trigger = {
            NOT = { employed_advisor = { category = ADM } }
        }
    }
}

defined_text = {
    name = getNscDisasterDipAdvisorScore
	random = no
	
	text = {
        localisation_key = hasNscDisasterDipAdvisorScore
        trigger = {
			employed_advisor = { category = DIP }
        }
    }
	
	text = {
        localisation_key = notNscDisasterDipAdvisorScore
        trigger = {
            NOT = { employed_advisor = { category = DIP } }
        }
    }
}

defined_text = {
    name = getNscDisasterMilAdvisorScore
	random = no
	
	text = {
        localisation_key = hasNscDisasterMilAdvisorScore
        trigger = {
			employed_advisor = { category = MIL }
        }
    }
	
	text = {
        localisation_key = notNscDisasterMilAdvisorScore
        trigger = {
            NOT = { employed_advisor = { category = MIL } }
        }
    }
}

defined_text = {
    name = getNscDisasterStabilityScore
	random = no
	
	text = {
        localisation_key = hasNscDisasterStabilityScore
        trigger = {
			stability = 1
        }
    }
	
	text = {
        localisation_key = notNscDisasterStabilityScore
        trigger = {
            NOT = { stability = 1 }
        }
    }
}

defined_text = {
    name = getNscDisasterStability3Score
	random = no
	
	text = {
        localisation_key = hasNscDisasterStability3Score
        trigger = {
			stability = 3
        }
    }
	
	text = {
        localisation_key = notNscDisasterStability3Score
        trigger = {
            NOT = { stability = 3 }
        }
    }
}

defined_text = {
    name = getNscDisasterClergyLoyaltyScore
	random = no
	
	text = {
        localisation_key = nscDisasterNoClergyScore
        trigger = {
			NOT = { has_estate = estate_church }
        }
    }
	
	text = {
        localisation_key = nscDisasterClergyLoyalty50Score
        trigger = {
			has_estate = estate_church
			estate_loyalty = { estate = estate_church loyalty = 50 }
        }
    }
	
	text = {
        localisation_key = nscDisasterClergyLoyalty30Score
        trigger = {
			has_estate = estate_church
            NOT = { estate_loyalty = { estate = estate_church loyalty = 50 } }
			estate_loyalty = { estate = estate_church loyalty = 30 }
        }
    }
	
	text = {
        localisation_key = nscDisasterClergyLoyaltyNot30Score
        trigger = {
			has_estate = estate_church
            NOT = { estate_loyalty = { estate = estate_church loyalty = 30 } }
        }
    }
}

defined_text = {
    name = getNscDisasterClergyLoyaltyScore
	random = no
	
	text = {
        localisation_key = nscDisasterNoNoblesScore
        trigger = {
			NOT = { has_estate = estate_nobles }
        }
    }
	
	text = {
        localisation_key = nscDisasterNoblesLoyalty50Score
        trigger = {
			estate_loyalty = { estate = estate_nobles loyalty = 50 }
        }
    }
	
	text = {
        localisation_key = nscDisasterNoblesLoyalty30Score
        trigger = {
            NOT = { estate_loyalty = { estate = estate_nobles loyalty = 50 } }
			estate_loyalty = { estate = estate_nobles loyalty = 30 }
        }
    }
	
	text = {
        localisation_key = nscDisasterNoblesLoyaltyNot30Score
        trigger = {
            NOT = { estate_loyalty = { estate = estate_nobles loyalty = 30 } }
        }
    }
}

defined_text = {
    name = getNscDisasterRebelsScore
	random = no
	
	text = {
        localisation_key = hasNscDisasterNoRebelsScore
        trigger = {
			NOT = { check_variable = { which = numOfRebelArmiesVar value = 1 } }
			NOT = { check_variable = { which = numOfRebelProvincesVar value = 1 } }
        }
    }
	
	text = {
        localisation_key = hasNscDisasterRebelArmiesScore
        trigger = {
            check_variable = { which = numOfRebelArmiesVar value = 1 }
			NOT = { check_variable = { which = numOfRebelProvincesVar value = 1 } }
        }
    }

	text = {
        localisation_key = hasNscDisasterRebelProvincesScore
        trigger = {
			NOT = { check_variable = { which = numOfRebelArmiesVar value = 1 } }
			check_variable = { which = numOfRebelProvincesVar value = 1 }
        }
    }
	
	text = {
        localisation_key = hasNscDisasterRebelArmiesAndProvincesScore
        trigger = {
			check_variable = { which = numOfRebelArmiesVar value = 1 }
            check_variable = { which = numOfRebelProvincesVar value = 1 }
        }
    }
}
