
namespace = racial_misc

# Half-orc heir
country_event = {
	id = racial_misc.1
	title = racial_misc.1.t
	desc = racial_misc.1.d
	picture = NEW_HEIR_eventPicture
	
	is_triggered_only = yes
	
	trigger = {
		OR = {
			AND = {
				ruler_is_human = yes
				consort_is_orcish = yes
			}
			AND = {
				ruler_is_orcish = yes
				consort_is_human = yes
			}
			AND = {
				ruler_is_human = yes
				consort_is_half_orcish = yes
			}
			AND = {
				ruler_is_half_orcish = yes
				consort_is_human = yes
			}
			AND = {
				ruler_is_orcish = yes
				consort_is_half_orcish = yes
			}
			AND = {
				ruler_is_half_orcish = yes
				consort_is_orcish = yes
			}
			AND = {
				ruler_is_half_orcish = yes
				consort_is_half_orcish = yes
			}
			AND = {
				ruler_is_elven = yes
				consort_is_orcish = yes
			}
			AND = {
				ruler_is_orcish = yes
				consort_is_elven = yes
			}
			AND = {
				ruler_is_half_elven = yes
				consort_is_orcish = yes
			}
			AND = {
				ruler_is_orcish = yes
				consort_is_half_elven = yes
			}
			AND = {
				ruler_is_half_elven = yes
				consort_is_half_orcish = yes
			}
			AND = {
				ruler_is_half_orcish = yes
				consort_is_half_elven = yes
			}
		}
		has_heir = yes
		NOT = { heir_is_half_orcish = yes }
		NOT = { has_heir_flag = set_heir_race }
		NOT = { heir_age = 16 }
	}
	
	option = {		# Good
		name = racial_misc.1.a
		if = {
			limit = {
				primary_culture = grombar_half_orc
			}
				set_heir_culture = grombar_half_orc
		}
		else = {
			set_heir_culture = half_orc
		}
	}
}

# Half-elf heir
country_event = {
	id = racial_misc.2
	title = racial_misc.2.t
	desc = racial_misc.2.d
	picture = NEW_HEIR_eventPicture
	
	is_triggered_only = yes
	
	trigger = {
		OR = {
			AND = {
				ruler_is_human = yes
				consort_is_elven = yes
			}
			AND = {
				ruler_is_elven = yes
				consort_is_human = yes
			}
			AND = {
				ruler_is_half_elven = yes
				consort_is_elven = yes
			}
			AND = {
				ruler_is_elven = yes
				consort_is_half_elven = yes
			}
			AND = {
				ruler_is_half_elven = yes
				consort_is_half_elven = yes
			}
			AND = {
				ruler_is_elven = yes
				consort_is_half_orcish = yes
			}
			AND = {
				ruler_is_half_orcish = yes
				consort_is_elven = yes
			}
		}
		has_heir = yes
		NOT = { heir_is_half_elven = yes }
		NOT = { has_heir_flag = set_heir_race }
		NOT = { heir_age = 16 }
	}
	
	option = {		# Good
		name = racial_misc.2.a
		set_heir_culture = half_elf
	}
}

# Half-elf to human
country_event = {
	id = racial_misc.3
	title = racial_misc.3.t
	desc = racial_misc.3.d
	picture = NEW_HEIR_eventPicture
	
	is_triggered_only = yes
	
	trigger = {
		OR = {
			AND = {
				ruler_is_human = yes
				consort_is_half_elven = yes
			}
			AND = {
				ruler_is_half_elven = yes
				consort_is_human = yes
			}
		}
		has_heir = yes
		NOT = { heir_is_human = yes }
		NOT = { has_heir_flag = set_heir_race }
	}
	
	option = {		# Good
		name = racial_misc.3.a
		remove_heir_personality = immortal_personality
		clr_heir_flag = set_immortality
		if = {
			limit = {
				ruler_is_human = yes
			}
			set_heir_culture = new_variable:ruler_culture
		}
		else_if = {
			limit = {
				culture_is_human = yes
			}
			set_heir_culture = ROOT
		}
		else = {
			set_heir_culture = new_variable:consort_culture
		}
	}
}

# Correct heir race due to event heirs being primary culture
country_event = {
	id = racial_misc.10
	title = racial_misc.10.t
	desc = racial_misc.10.d
	picture = NEW_HEIR_eventPicture
	
	is_triggered_only = yes
	hidden = yes
	
	trigger = {
		government = monarchy
		NOT = { has_matching_race_ruler_to_heir = yes }
		NOT = { has_heir_flag = set_heir_race }
	}
	
	option = {
		set_heir_culture = new_variable:ruler_culture
	}
}